%YAML 1.1
%TAG !u! tag:unity3d.com,2011:
--- !u!1 &1740243997653868121
GameObject:
  m_ObjectHideFlags: 0
  m_CorrespondingSourceObject: {fileID: 0}
  m_PrefabInstance: {fileID: 0}
  m_PrefabAsset: {fileID: 0}
  serializedVersion: 6
  m_Component:
  - component: {fileID: 1740243997653868103}
  - component: {fileID: 1740243997653868102}
  - component: {fileID: 1740243997653868123}
  - component: {fileID: 1740243997653868122}
  m_Layer: 0
  m_Name: vThirdPersonCamera
  m_TagString: MainCamera
  m_Icon: {fileID: 0}
  m_NavMeshLayer: 0
  m_StaticEditorFlags: 0
  m_IsActive: 1
--- !u!4 &1740243997653868103
Transform:
  m_ObjectHideFlags: 0
  m_CorrespondingSourceObject: {fileID: 0}
  m_PrefabInstance: {fileID: 0}
  m_PrefabAsset: {fileID: 0}
  m_GameObject: {fileID: 1740243997653868121}
  m_LocalRotation: {x: -0.07522147, y: 0.91074914, z: -0.19126476, w: -0.35818374}
  m_LocalPosition: {x: 23.267706, y: 9.2395115, z: 23.962551}
  m_LocalScale: {x: 1, y: 1, z: 1}
  m_Children: []
  m_Father: {fileID: 0}
  m_RootOrder: 0
  m_LocalEulerAnglesHint: {x: 0, y: 0, z: 0}
--- !u!20 &1740243997653868102
Camera:
  m_ObjectHideFlags: 0
  m_CorrespondingSourceObject: {fileID: 0}
  m_PrefabInstance: {fileID: 0}
  m_PrefabAsset: {fileID: 0}
  m_GameObject: {fileID: 1740243997653868121}
  m_Enabled: 1
  serializedVersion: 2
  m_ClearFlags: 1
  m_BackGroundColor: {r: 0.19215687, g: 0.3019608, b: 0.4745098, a: 0.019607844}
  m_projectionMatrixMode: 1
  m_GateFitMode: 2
  m_FOVAxisMode: 0
  m_SensorSize: {x: 36, y: 24}
  m_LensShift: {x: 0, y: 0}
  m_FocalLength: 50
  m_NormalizedViewPortRect:
    serializedVersion: 2
    x: 0
    y: 0
    width: 1
    height: 1
  near clip plane: 0.01
  far clip plane: 250
  field of view: 50
  orthographic: 0
  orthographic size: 5
  m_Depth: 0
  m_CullingMask:
    serializedVersion: 2
    m_Bits: 4294967295
  m_RenderingPath: 3
  m_TargetTexture: {fileID: 0}
  m_TargetDisplay: 0
  m_TargetEye: 3
  m_HDR: 0
  m_AllowMSAA: 0
  m_AllowDynamicResolution: 0
  m_ForceIntoRT: 0
  m_OcclusionCulling: 1
  m_StereoConvergence: 10
  m_StereoSeparation: 0.022
--- !u!81 &1740243997653868123
AudioListener:
  m_ObjectHideFlags: 0
  m_CorrespondingSourceObject: {fileID: 0}
  m_PrefabInstance: {fileID: 0}
  m_PrefabAsset: {fileID: 0}
  m_GameObject: {fileID: 1740243997653868121}
  m_Enabled: 1
--- !u!114 &1740243997653868122
MonoBehaviour:
  m_ObjectHideFlags: 0
  m_CorrespondingSourceObject: {fileID: 0}
  m_PrefabInstance: {fileID: 0}
  m_PrefabAsset: {fileID: 0}
  m_GameObject: {fileID: 1740243997653868121}
  m_Enabled: 1
  m_EditorHideFlags: 0
  m_Script: {fileID: 11500000, guid: 1a1bfe72fbc87d04e885296b53e91c66, type: 3}
  m_Name: 
  m_EditorClassIdentifier: 
  target: {fileID: 0}
  smoothBetweenState: 10
  smoothCameraRotation: 12
  scrollSpeed: 10
  cullingLayer:
    serializedVersion: 2
    m_Bits: 0
  clipPlaneMargin: 0
  checkHeightRadius: 0
  showGizmos: 0
  startUsingTargetRotation: 1
  startSmooth: 1
  lockCamera: 0
  offsetMouse: {x: 0, y: 0}
  indexList: 0
  indexLookPoint: 0
  offSetPlayerPivot: 0
  distance: 5
  currentStateName: 
  currentTarget: {fileID: 0}
  currentState:
    Name: 
    forward: 0
    right: 0
    defaultDistance: 0
    maxDistance: 0
    minDistance: 0
    height: 0
    smooth: 0
    smoothDamp: 0
    xMouseSensitivity: 0
    yMouseSensitivity: 0
    yMinLimit: 0
    yMaxLimit: 0
    xMinLimit: 0
    xMaxLimit: 0
    rotationOffSet: {x: 0, y: 0, z: 0}
    cullingHeight: 0
    cullingMinDist: 0
    fov: 0
    useZoom: 0
    fixedAngle: {x: 0, y: 0}
    lookPoints: []
    cameraMode: 0
  CameraStateList: {fileID: 11400000, guid: 77e476d6f5332c14fbf0525e160c60e6, type: 2}
  lockTarget: {fileID: 0}
  movementSpeed: {x: 0, y: 0}
  lerpState:
    Name: 
    forward: 0
    right: 0
    defaultDistance: 0
    maxDistance: 0
    minDistance: 0
    height: 0
    smooth: 0
    smoothDamp: 0
    xMouseSensitivity: 0
    yMouseSensitivity: 0
    yMinLimit: 0
    yMaxLimit: 0
    xMinLimit: 0
    xMaxLimit: 0
    rotationOffSet: {x: 0, y: 0, z: 0}
    cullingHeight: 0
    cullingMinDist: 0
    fov: 0
    useZoom: 0
    fixedAngle: {x: 0, y: 0}
    lookPoints: []
    cameraMode: 0
