%YAML 1.1
%TAG !u! tag:unity3d.com,2011:
--- !u!114 &11400000
MonoBehaviour:
  m_ObjectHideFlags: 0
  m_CorrespondingSourceObject: {fileID: 0}
  m_PrefabInstance: {fileID: 0}
  m_PrefabAsset: {fileID: 0}
  m_GameObject: {fileID: 0}
  m_Enabled: 1
  m_EditorHideFlags: 0
  m_Script: {fileID: 11500000, guid: 7592ac57a97621844bb7d05b6822c040, type: 3}
  m_Name: vTopDown@CameraState
  m_EditorClassIdentifier: 
  Name: 
  tpCameraStates:
  - Name: Default
    forward: -1
    right: 0
    defaultDistance: 10
    maxDistance: 15
    minDistance: 3
    height: 0
    smooth: 10
    smoothDamp: 0
    xMouseSensitivity: 3
    yMouseSensitivity: 3
    yMinLimit: 0
    yMaxLimit: 0
    xMinLimit: 0
    xMaxLimit: 0
    rotationOffSet: {x: 0, y: 0, z: 0}
    cullingHeight: 0.2
    cullingMinDist: 0.1
    fov: 50
    useZoom: 0
    fixedAngle: {x: 226, y: 56}
    lookPoints: []
    cameraMode: 1
